{
    "success": true,
    "message": "Orders fetched",
    "data": {
        "content": [
            {
                "orderId": 9001,
                "orderNumber": "ORD-2025-0001",
                "userName": "Biswajeet",
                "orderStatus": "DELIVERED",
                "paymentStatus": "PAID",
                "totalAmount": 478.00,
                "placedAt": "2025-01-20T10:45:00"
            }
        ],
        "page": 0,
        "size": 10,
        "totalElements": 420,
        "totalPages": 42
    }
}